<?xml version="1.0"?>
<VTKFile type="Collection" version="0.1">
  <Collection>
    <DataSet timestep="0" part="0" file="uvw_gaussian_XYin_XoutYout_free_implicit000000.vtu" />
  </Collection>
</VTKFile>
