	14                			IZUTM               ! actual UTM zone
	634750  3925950     			ORIGO               ! UTM x,y
	0               			Theta               ! angle offset from UTM grid [deg]
	400  400				NCOLS,NROWS         ! number of columns and rows
	-500	-500     			IOFF,JOFF           ! xmin,ymin offset from origo [dx], [dy]
	5	5          			dX,dY               ! cell dimensions
	'bld_okc_all_blds_same_misc_as_osb_4C' 	shpname  	    ! shape file name (no extension)
	1 					wakesOn             ! wakes are calculated and initiated if 1, skipped if 0
	150					maxBuildingHeight   ! max height (m) of buildings
