\relax 
\@writefile{toc}{\contentsline {section}{\numberline {1}Setting/Unsetting proxy server:}{1}}
\@writefile{toc}{\contentsline {section}{\numberline {2}How to work with GIT bash terminal:}{1}}
\@writefile{toc}{\contentsline {section}{\numberline {3}VIM-terminal}{1}}
