\relax 
\@writefile{toc}{\contentsline {section}{\numberline {1}Summary}{1}}
\@writefile{toc}{\contentsline {section}{\numberline {2}Background}{1}}
\citation{FEniCS_RANS}
\citation{Rockle}
\citation{FOI_memo_1608}
\citation{FOI_memo_1608}
\@writefile{toc}{\contentsline {section}{\numberline {3}Tasks in detail}{2}}
\@writefile{toc}{\contentsline {subsection}{\numberline {3.1}Create mesh from GIS-data}{2}}
\@writefile{toc}{\contentsline {subsection}{\numberline {3.2}CFD Solution Method: Reynolds Averged Navier-Stokes (RANS) equation}{2}}
\@writefile{toc}{\contentsline {subsection}{\numberline {3.3}Non-CFD Solution Method: R\IeC {\"o}ckles method}{2}}
\citation{QUIC-URB}
\bibcite{FEniCS_RANS}{1}
\bibcite{Rockle}{2}
\bibcite{QUIC-URB}{3}
\bibcite{FOI_memo_1608}{4}
\@writefile{toc}{\contentsline {subsection}{\numberline {3.4}Compare, visualize and disseminate the results}{3}}
\@writefile{toc}{\contentsline {section}{References}{3}}
